{
  "configVersion": 2,
  "packages": [
    {
      "name": "characters",
      "rootUri": "file:///Users/alok/.pub-cache/hosted/pub.dartlang.org/characters-1.2.0",
      "packageUri": "lib/",
      "languageVersion": "2.12"
    },
    {
      "name": "collection",
      "rootUri": "file:///Users/alok/.pub-cache/hosted/pub.dartlang.org/collection-1.16.0",
      "packageUri": "lib/",
      "languageVersion": "2.12"
    },
    {
      "name": "flutter",
      "rootUri": "file:///Users/alok/sdks/flutter/flutter/packages/flutter",
      "packageUri": "lib/",
      "languageVersion": "2.12"
    },
    {
      "name": "material_color_utilities",
      "rootUri": "file:///Users/alok/.pub-cache/hosted/pub.dartlang.org/material_color_utilities-0.1.4",
      "packageUri": "lib/",
      "languageVersion": "2.13"
    },
    {
      "name": "meta",
      "rootUri": "file:///Users/alok/.pub-cache/hosted/pub.dartlang.org/meta-1.7.0",
      "packageUri": "lib/",
      "languageVersion": "2.12"
    },
    {
      "name": "sky_engine",
      "rootUri": "file:///Users/alok/sdks/flutter/flutter/bin/cache/pkg/sky_engine",
      "packageUri": "lib/",
      "languageVersion": "2.12"
    },
    {
      "name": "vector_math",
      "rootUri": "file:///Users/alok/.pub-cache/hosted/pub.dartlang.org/vector_math-2.1.2",
      "packageUri": "lib/",
      "languageVersion": "2.14"
    },
    {
      "name": "background_fetch",
      "rootUri": "../",
      "packageUri": "lib/",
      "languageVersion": "2.12"
    }
  ],
  "generated": "2023-01-27T18:55:07.245027Z",
  "generator": "pub",
  "generatorVersion": "2.17.6"
}
